992
-320 32 -176 -16 -352 56
-864 120
992
-256 -712 8
160 -344 472
-80 632 -48 -104 96
-272 712
-200 784
992
-872 112
-184 -528 264
-712 -72 192
-16 968
-8 -776 192
-440 -80 456
-720 264
-240 744
992
-80 -424 -40 96 -88 224
-392 -216 368
992
-536 -88 168 -48 120
-48 -160 136 -64 -152 392
992
