22

15
15
15
15
-2
-2
30

25
25
25
25
-1
-1
-1
-1
124

10
10
10
10
10
-4
-2
11

10
10
10
10
10
-4
-2
11
-3
-3

20
20
20
20
20
-4
-2
-2

20
20
-1
40
20
20
20

19
19
19
19
19
19
-5
-3
-1
-3
-2
-1

20
-1
20
-1
20
-1
20
-1
20
-1
20

20
20
-1
20
-1
20
-1
20
-1
20
-1
20

1
2
3
4
5
6
7
8
9
10
-1
-1
-1
-1
-1

10
9
8
7
6
5
4
3
2
1
-2
-2
11

40
20
-1
20
20

124
-1
61
61

61
61
-1
30
29
-1
15
14

61
30
15
7
3
1

1
1
1
-2

4
4
-1
2
1

1
3
7
15
31
-1
2

61
30
-1
30
15
15
15

2
3
-1
4
-1
7
-1
12
-1

61
30
-1
30
30
31
-1
-2

10
10
10
10
10
10
10
10
10
10
10
-1
-1
-3
-2
-1
-6
-4
-4
-1
-2
-1
